[gd_scene load_steps=7 format=2]

[ext_resource path="res://Sprites/Cop/Cop_0004.png" type="Texture" id=1]
[ext_resource path="res://Scenes/Cop.gd" type="Script" id=2]
[ext_resource path="res://Sprites/Cop/Cop_0005.png" type="Texture" id=3]
[ext_resource path="res://Sprites/Cop/Cop_0001.png" type="Texture" id=4]

[sub_resource type="SpriteFrames" id=1]
animations = [ {
"frames": [ ExtResource( 3 ) ],
"loop": true,
"name": "throw",
"speed": 5.0
}, {
"frames": [ ExtResource( 4 ) ],
"loop": true,
"name": "stand",
"speed": 5.0
}, {
"frames": [ ExtResource( 1 ) ],
"loop": true,
"name": "wind",
"speed": 5.0
} ]

[sub_resource type="RectangleShape2D" id=2]
extents = Vector2( 11.9003, 24.3173 )

[node name="Cop" type="KinematicBody2D"]
z_index = 20
collision_layer = 2
script = ExtResource( 2 )

[node name="police" type="AnimatedSprite" parent="."]
position = Vector2( -6.53438, -3.05793 )
scale = Vector2( 0.0332025, 0.0298803 )
frames = SubResource( 1 )
animation = "stand"

[node name="Position2D" type="Position2D" parent="police"]
show_behind_parent = true
position = Vector2( -738.358, -719.1 )

[node name="CollisionShape2D" type="CollisionShape2D" parent="."]
position = Vector2( -3.98388, -0.257027 )
shape = SubResource( 2 )
