[gd_scene load_steps=3 format=2]

[ext_resource path="res://Sprites/Tiles/spritesheet.png" type="Texture" id=1]

[sub_resource type="RectangleShape2D" id=1]
extents = Vector2( 33.2955, 32.3272 )

[node name="FallthroughTiles" type="Node"]

[node name="Sprite" type="Sprite" parent="."]
texture = ExtResource( 1 )
centered = false
region_enabled = true
region_rect = Rect2( 0, 0, 64, 64 )

[node name="StaticBody2D" type="StaticBody2D" parent="Sprite"]
collision_layer = 2
collision_mask = 0

[node name="CollisionShape2D" type="CollisionShape2D" parent="Sprite/StaticBody2D"]
position = Vector2( 31.7335, 33.4037 )
shape = SubResource( 1 )
one_way_collision = true

[node name="Sprite2" type="Sprite" parent="."]
texture = ExtResource( 1 )
centered = false
region_enabled = true
region_rect = Rect2( 420, 0, 70, 70 )

[node name="StaticBody2D" type="StaticBody2D" parent="Sprite2"]
collision_layer = 2
collision_mask = 0

[node name="CollisionShape2D" type="CollisionShape2D" parent="Sprite2/StaticBody2D"]
position = Vector2( 31.7335, 33.4037 )
shape = SubResource( 1 )
one_way_collision = true
