[gd_scene load_steps=5 format=2]

[ext_resource path="res://Sprites/Cars/PoliceCar.png" type="Texture" id=1]

[sub_resource type="RectangleShape2D" id=1]
extents = Vector2( 27.6, 28.3407 )

[sub_resource type="RectangleShape2D" id=2]
extents = Vector2( 9.29656, 11.1476 )

[sub_resource type="RectangleShape2D" id=3]
extents = Vector2( 7.29623, 6.04257 )

[node name="KinematicBody2D" type="KinematicBody2D"]

[node name="Sprite" type="Sprite" parent="."]
position = Vector2( -7.2426, -75.0937 )
scale = Vector2( 0.08149, 0.08149 )
texture = ExtResource( 1 )

[node name="CollisionShape2D_1" type="CollisionShape2D" parent="."]
position = Vector2( -2.167, 8.775 )
scale = Vector2( 3.038, 0.526 )
shape = SubResource( 1 )

[node name="CollisionShape2D_2" type="CollisionShape2D" parent="."]
position = Vector2( 10.7373, -17.627 )
scale = Vector2( 5.235, 1.022 )
shape = SubResource( 2 )

[node name="CollisionShape2D" type="CollisionShape2D" parent="."]
position = Vector2( 5.23024, -35.0619 )
shape = SubResource( 3 )
