[gd_scene load_steps=7 format=2]

[ext_resource path="res://teargas.gd" type="Script" id=1]
[ext_resource path="res://Images/Gas_0000.png" type="Texture" id=2]
[ext_resource path="res://Images/Gas_0001.png" type="Texture" id=3]

[sub_resource type="SpriteFrames" id=1]
animations = [ {
"frames": [ ExtResource( 2 ) ],
"loop": true,
"name": "land",
"speed": 5.0
}, {
"frames": [ ExtResource( 3 ) ],
"loop": true,
"name": "throw",
"speed": 5.0
} ]

[sub_resource type="CircleShape2D" id=2]
radius = 73.1229

[sub_resource type="CircleShape2D" id=3]
radius = 591.254

[node name="teargas" type="KinematicBody2D"]
scale = Vector2( 3, 3 )
collision_layer = 2
script = ExtResource( 1 )

[node name="AnimatedSprite" type="AnimatedSprite" parent="."]
position = Vector2( 12.0067, -21.4276 )
scale = Vector2( 0.332497, 0.34133 )
frames = SubResource( 1 )
animation = "throw"

[node name="CollisionShape2D" type="CollisionShape2D" parent="."]
position = Vector2( 3.39758, 1.05261 )
shape = SubResource( 2 )

[node name="Position2D" type="Position2D" parent="."]

[node name="Area2D" type="Area2D" parent="."]
collision_layer = 0
collision_mask = 32

[node name="CollisionShape2D" type="CollisionShape2D" parent="Area2D"]
position = Vector2( -1.05121, 0 )
shape = SubResource( 3 )
[connection signal="body_entered" from="Area2D" to="." method="_on_Area2D_body_entered"]
