[gd_resource type="Theme" load_steps=3 format=2]

[ext_resource path="res://Interface/theme/font/Comfortaa-Bold.ttf" type="DynamicFontData" id=1]

[sub_resource type="DynamicFont" id=1]
size = 13
use_mipmaps = true
use_filter = true
font_data = ExtResource( 1 )

[resource]
default_font = SubResource( 1 )
